^C:\USERS\TETSUSHI\DOCUMENTS\VISUAL STUDIO 2015\PROJECTS\KAMIHIMEPLAYER\PROJ.WIN32\RELEASE.WIN32\APPDELEGATE.OBJ|C:\USERS\TETSUSHI\DOCUMENTS\VISUAL STUDIO 2015\PROJECTS\KAMIHIMEPLAYER\PROJ.WIN32\RELEASE.WIN32\GAME.RES|C:\USERS\TETSUSHI\DOCUMENTS\VISUAL STUDIO 2015\PROJECTS\KAMIHIMEPLAYER\PROJ.WIN32\RELEASE.WIN32\HALEMMANAGER.OBJ|C:\USERS\TETSUSHI\DOCUMENTS\VISUAL STUDIO 2015\PROJECTS\KAMIHIMEPLAYER\PROJ.WIN32\RELEASE.WIN32\HELLOWORLDSCENE.OBJ|C:\USERS\TETSUSHI\DOCUMENTS\VISUAL STUDIO 2015\PROJECTS\KAMIHIMEPLAYER\PROJ.WIN32\RELEASE.WIN32\JSON11.OBJ|C:\USERS\TETSUSHI\DOCUMENTS\VISUAL STUDIO 2015\PROJECTS\KAMIHIMEPLAYER\PROJ.WIN32\RELEASE.WIN32\MAIN.OBJ|C:\USERS\TETSUSHI\DOCUMENTS\VISUAL STUDIO 2015\PROJECTS\KAMIHIMEPLAYER\PROJ.WIN32\RELEASE.WIN32\MOVIESPRITE.OBJ|C:\USERS\TETSUSHI\DOCUMENTS\VISUAL STUDIO 2015\PROJECTS\KAMIHIMEPLAYER\PROJ.WIN32\RELEASE.WIN32\OPENFILEDIALOG-WIN32.OBJ|C:\USERS\TETSUSHI\DOCUMENTS\VISUAL STUDIO 2015\PROJECTS\KAMIHIMEPLAYER\PROJ.WIN32\RELEASE.WIN32\OPENFILEDIALOG.OBJ
C:\WINDOWS\GLOBALIZATION\SORTING\SORTDEFAULT.NLS
C:\USERS\TETSUSHI\DOCUMENTS\VISUAL STUDIO 2015\PROJECTS\KAMIHIMEPLAYER\PROJ.WIN32\RELEASE.WIN32\LIBCURL_IMP.LIB
C:\USERS\TETSUSHI\DOCUMENTS\VISUAL STUDIO 2015\PROJECTS\KAMIHIMEPLAYER\PROJ.WIN32\RELEASE.WIN32\WEBSOCKETS.LIB
C:\PROGRAM FILES (X86)\MICROSOFT SDKS\WINDOWS\V7.1A\LIB\OPENGL32.LIB
C:\USERS\TETSUSHI\DOCUMENTS\VISUAL STUDIO 2015\PROJECTS\KAMIHIMEPLAYER\PROJ.WIN32\RELEASE.WIN32\GLEW32.LIB
C:\USERS\TETSUSHI\DOCUMENTS\VISUAL STUDIO 2015\PROJECTS\KAMIHIMEPLAYER\PROJ.WIN32\RELEASE.WIN32\LIBZLIB.LIB
C:\USERS\TETSUSHI\DOCUMENTS\VISUAL STUDIO 2015\PROJECTS\KAMIHIMEPLAYER\PROJ.WIN32\RELEASE.WIN32\LIBWEBP.LIB
C:\USERS\TETSUSHI\DOCUMENTS\VISUAL STUDIO 2015\PROJECTS\KAMIHIMEPLAYER\PROJ.WIN32\RELEASE.WIN32\LIBICONV.LIB
C:\USERS\TETSUSHI\DOCUMENTS\VISUAL STUDIO 2015\PROJECTS\KAMIHIMEPLAYER\PROJ.WIN32\RELEASE.WIN32\FREETYPE.LIB
C:\PROGRAM FILES (X86)\MICROSOFT SDKS\WINDOWS\V7.1A\LIB\WINMM.LIB
C:\PROGRAM FILES (X86)\MICROSOFT SDKS\WINDOWS\V7.1A\LIB\WS2_32.LIB
C:\PROGRAM FILES (X86)\MICROSOFT SDKS\WINDOWS\V7.1A\LIB\KERNEL32.LIB
C:\PROGRAM FILES (X86)\MICROSOFT SDKS\WINDOWS\V7.1A\LIB\USER32.LIB
C:\PROGRAM FILES (X86)\MICROSOFT SDKS\WINDOWS\V7.1A\LIB\GDI32.LIB
C:\PROGRAM FILES (X86)\MICROSOFT SDKS\WINDOWS\V7.1A\LIB\WINSPOOL.LIB
C:\PROGRAM FILES (X86)\MICROSOFT SDKS\WINDOWS\V7.1A\LIB\COMDLG32.LIB
C:\PROGRAM FILES (X86)\MICROSOFT SDKS\WINDOWS\V7.1A\LIB\ADVAPI32.LIB
C:\PROGRAM FILES (X86)\MICROSOFT SDKS\WINDOWS\V7.1A\LIB\SHELL32.LIB
C:\PROGRAM FILES (X86)\MICROSOFT SDKS\WINDOWS\V7.1A\LIB\OLE32.LIB
C:\PROGRAM FILES (X86)\MICROSOFT SDKS\WINDOWS\V7.1A\LIB\OLEAUT32.LIB
C:\PROGRAM FILES (X86)\MICROSOFT SDKS\WINDOWS\V7.1A\LIB\UUID.LIB
C:\PROGRAM FILES (X86)\MICROSOFT SDKS\WINDOWS\V7.1A\LIB\ODBC32.LIB
C:\PROGRAM FILES (X86)\MICROSOFT SDKS\WINDOWS\V7.1A\LIB\ODBCCP32.LIB
C:\USERS\TETSUSHI\DOCUMENTS\VISUAL STUDIO 2015\PROJECTS\KAMIHIMEPLAYER\PROJ.WIN32\RELEASE.WIN32\GAME.RES
C:\USERS\TETSUSHI\DOCUMENTS\VISUAL STUDIO 2015\PROJECTS\KAMIHIMEPLAYER\PROJ.WIN32\RELEASE.WIN32\APPDELEGATE.OBJ
C:\USERS\TETSUSHI\DOCUMENTS\VISUAL STUDIO 2015\PROJECTS\KAMIHIMEPLAYER\PROJ.WIN32\RELEASE.WIN32\HALEMMANAGER.OBJ
C:\USERS\TETSUSHI\DOCUMENTS\VISUAL STUDIO 2015\PROJECTS\KAMIHIMEPLAYER\PROJ.WIN32\RELEASE.WIN32\HELLOWORLDSCENE.OBJ
C:\USERS\TETSUSHI\DOCUMENTS\VISUAL STUDIO 2015\PROJECTS\KAMIHIMEPLAYER\PROJ.WIN32\RELEASE.WIN32\JSON11.OBJ
C:\USERS\TETSUSHI\DOCUMENTS\VISUAL STUDIO 2015\PROJECTS\KAMIHIMEPLAYER\PROJ.WIN32\RELEASE.WIN32\MOVIESPRITE.OBJ
C:\USERS\TETSUSHI\DOCUMENTS\VISUAL STUDIO 2015\PROJECTS\KAMIHIMEPLAYER\PROJ.WIN32\RELEASE.WIN32\OPENFILEDIALOG.OBJ
C:\USERS\TETSUSHI\DOCUMENTS\VISUAL STUDIO 2015\PROJECTS\KAMIHIMEPLAYER\PROJ.WIN32\RELEASE.WIN32\OPENFILEDIALOG-WIN32.OBJ
C:\USERS\TETSUSHI\DOCUMENTS\VISUAL STUDIO 2015\PROJECTS\KAMIHIMEPLAYER\PROJ.WIN32\RELEASE.WIN32\MAIN.OBJ
C:\PROGRAM FILES (X86)\MICROSOFT VISUAL STUDIO 14.0\VC\BIN\C2.DLL
C:\USERS\TETSUSHI\DOCUMENTS\VISUAL STUDIO 2015\PROJECTS\KAMIHIMEPLAYER\PROJ.WIN32\RELEASE.WIN32\LIBPNG-2015.LIB
C:\USERS\TETSUSHI\DOCUMENTS\VISUAL STUDIO 2015\PROJECTS\KAMIHIMEPLAYER\PROJ.WIN32\RELEASE.WIN32\LIBJPEG-2015.LIB
C:\USERS\TETSUSHI\DOCUMENTS\VISUAL STUDIO 2015\PROJECTS\KAMIHIMEPLAYER\PROJ.WIN32\RELEASE.WIN32\LIBTIFF-2015.LIB
C:\USERS\TETSUSHI\DOCUMENTS\VISUAL STUDIO 2015\PROJECTS\KAMIHIMEPLAYER\PROJ.WIN32\RELEASE.WIN32\GLFW3-2015.LIB
C:\USERS\TETSUSHI\DOCUMENTS\VISUAL STUDIO 2015\PROJECTS\KAMIHIMEPLAYER\PROJ.WIN32\RELEASE.WIN32\LIBCHIPMUNK-2015.LIB
C:\PROGRAM FILES (X86)\MICROSOFT VISUAL STUDIO 14.0\VC\LIB\MSVCPRT.LIB
C:\PROGRAM FILES (X86)\MICROSOFT VISUAL STUDIO 14.0\VC\LIB\MSVCRT.LIB
C:\PROGRAM FILES (X86)\MICROSOFT VISUAL STUDIO 14.0\VC\LIB\OLDNAMES.LIB
C:\USERS\TETSUSHI\DOCUMENTS\VISUAL STUDIO 2015\PROJECTS\KAMIHIMEPLAYER\PROJ.WIN32\RELEASE.WIN32\LIBCOCOS2D_2015.LIB
C:\USERS\TETSUSHI\DOCUMENTS\VISUAL STUDIO 2015\PROJECTS\KAMIHIMEPLAYER\PROJ.WIN32\RELEASE.WIN32\LIBBOX2D_2015.LIB
C:\USERS\TETSUSHI\DOCUMENTS\VISUAL STUDIO 2015\PROJECTS\KAMIHIMEPLAYER\PROJ.WIN32\RELEASE.WIN32\LIBSPINE_2015.LIB
C:\USERS\TETSUSHI\DOCUMENTS\VISUAL STUDIO 2015\PROJECTS\KAMIHIMEPLAYER\PROJ.WIN32\RELEASE.WIN32\LIBRECAST_2015.LIB
C:\USERS\TETSUSHI\DOCUMENTS\VISUAL STUDIO 2015\PROJECTS\KAMIHIMEPLAYER\PROJ.WIN32\RELEASE.WIN32\LIBBULLET_2015.LIB
C:\PROGRAM FILES (X86)\MICROSOFT VISUAL STUDIO 14.0\VC\LIB\VCRUNTIME.LIB
C:\PROGRAM FILES (X86)\WINDOWS KITS\10\LIB\10.0.10240.0\UCRT\X86\UCRT.LIB
C:\WINDOWS\SYSTEM32\TZRES.DLL
C:\PROGRAM FILES (X86)\MICROSOFT VISUAL STUDIO 14.0\VC\BIN\1041\LINKUI.DLL
C:\USERS\TETSUSHI\DOCUMENTS\VISUAL STUDIO 2015\PROJECTS\KAMIHIMEPLAYER\PROJ.WIN32\RELEASE.WIN32\KAMIHIMEPLAYER.IPDB
C:\USERS\TETSUSHI\DOCUMENTS\VISUAL STUDIO 2015\PROJECTS\KAMIHIMEPLAYER\PROJ.WIN32\RELEASE.WIN32\KAMIHIMEPLAYER.IOBJ
C:\PROGRAM FILES (X86)\WINDOWS KITS\8.1\BIN\X86\RC.EXE
C:\PROGRAM FILES (X86)\MICROSOFT VISUAL STUDIO 14.0\VC\BIN\CVTRES.EXE
C:\WINDOWS\SYSTEM32\RSAENH.DLL
