^C:\USERS\TETSUSHI\DOCUMENTS\VISUAL STUDIO 2015\PROJECTS\KAMIHIMEPLAYER\CLASSES\APPDELEGATE.CPP
/c /I"C:\\COCOS2D-X-3.10\COCOS\AUDIO\INCLUDE" /I"C:\\COCOS2D-X-3.10\EXTERNAL" /I"C:\\COCOS2D-X-3.10\EXTERNAL\CHIPMUNK\INCLUDE\CHIPMUNK" /I"C:\\COCOS2D-X-3.10\EXTENSIONS" /I..\CLASSES /I.. /I"C:\COCOS2D-X-3.10\COCOS\2D\..\..\COCOS\EDITOR-SUPPORT" /I"C:\COCOS2D-X-3.10\COCOS\2D\..\..\COCOS" /I"C:\COCOS2D-X-3.10\COCOS\2D\..\..\COCOS\PLATFORM" /I"C:\COCOS2D-X-3.10\COCOS\2D\..\..\COCOS\PLATFORM\DESKTOP" /I"C:\COCOS2D-X-3.10\COCOS\2D\..\..\EXTERNAL\GLFW3\INCLUDE\WIN32" /I"C:\COCOS2D-X-3.10\COCOS\2D\..\..\EXTERNAL\WIN32-SPECIFIC\GLES\INCLUDE\OGLES" /I"C:\COCOS2D-X-3.10\COCOS\2D\..\..\EXTERNAL\FREETYPE2\INCLUDE\WIN32\FREETYPE2" /I"C:\COCOS2D-X-3.10\COCOS\2D\..\..\EXTERNAL\FREETYPE2\INCLUDE\WIN32\\" /I"C:\COCOS2D-X-3.10\COCOS\2D\..\..\EXTERNAL" /ZI /nologo /W3 /WX- /sdl- /Od /Oy- /D WIN32 /D _WINDOWS /D _USE_MATH_DEFINES /D GL_GLEXT_PROTOTYPES /D CC_ENABLE_CHIPMUNK_INTEGRATION=1 /D COCOS2D_DEBUG=1 /D _CRT_SECURE_NO_WARNINGS /D _SCL_SECURE_NO_WARNINGS /D _VARIADIC_MAX=10 /D _MBCS /Gm- /EHsc /RTC1 /MD /GS /fp:precise /Zc:wchar_t /Zc:forScope /Zc:inline /Fo"DEBUG.WIN32\\" /Fd"DEBUG.WIN32\VC140.PDB" /Gd /TP /wd4267 /wd4251 /wd4244 /analyze- C:\USERS\TETSUSHI\DOCUMENTS\VISUAL STUDIO 2015\PROJECTS\KAMIHIMEPLAYER\CLASSES\APPDELEGATE.CPP
^C:\USERS\TETSUSHI\DOCUMENTS\VISUAL STUDIO 2015\PROJECTS\KAMIHIMEPLAYER\CLASSES\HELLOWORLDSCENE.CPP
/c /I"C:\\COCOS2D-X-3.10\COCOS\AUDIO\INCLUDE" /I"C:\\COCOS2D-X-3.10\EXTERNAL" /I"C:\\COCOS2D-X-3.10\EXTERNAL\CHIPMUNK\INCLUDE\CHIPMUNK" /I"C:\\COCOS2D-X-3.10\EXTENSIONS" /I..\CLASSES /I.. /I"C:\COCOS2D-X-3.10\COCOS\2D\..\..\COCOS\EDITOR-SUPPORT" /I"C:\COCOS2D-X-3.10\COCOS\2D\..\..\COCOS" /I"C:\COCOS2D-X-3.10\COCOS\2D\..\..\COCOS\PLATFORM" /I"C:\COCOS2D-X-3.10\COCOS\2D\..\..\COCOS\PLATFORM\DESKTOP" /I"C:\COCOS2D-X-3.10\COCOS\2D\..\..\EXTERNAL\GLFW3\INCLUDE\WIN32" /I"C:\COCOS2D-X-3.10\COCOS\2D\..\..\EXTERNAL\WIN32-SPECIFIC\GLES\INCLUDE\OGLES" /I"C:\COCOS2D-X-3.10\COCOS\2D\..\..\EXTERNAL\FREETYPE2\INCLUDE\WIN32\FREETYPE2" /I"C:\COCOS2D-X-3.10\COCOS\2D\..\..\EXTERNAL\FREETYPE2\INCLUDE\WIN32\\" /I"C:\COCOS2D-X-3.10\COCOS\2D\..\..\EXTERNAL" /ZI /nologo /W3 /WX- /sdl- /Od /Oy- /D WIN32 /D _WINDOWS /D _USE_MATH_DEFINES /D GL_GLEXT_PROTOTYPES /D CC_ENABLE_CHIPMUNK_INTEGRATION=1 /D COCOS2D_DEBUG=1 /D _CRT_SECURE_NO_WARNINGS /D _SCL_SECURE_NO_WARNINGS /D _VARIADIC_MAX=10 /D _MBCS /Gm- /EHsc /RTC1 /MD /GS /fp:precise /Zc:wchar_t /Zc:forScope /Zc:inline /Fo"DEBUG.WIN32\\" /Fd"DEBUG.WIN32\VC140.PDB" /Gd /TP /wd4267 /wd4251 /wd4244 /analyze- C:\USERS\TETSUSHI\DOCUMENTS\VISUAL STUDIO 2015\PROJECTS\KAMIHIMEPLAYER\CLASSES\HELLOWORLDSCENE.CPP
^C:\USERS\TETSUSHI\DOCUMENTS\VISUAL STUDIO 2015\PROJECTS\KAMIHIMEPLAYER\CLASSES\JSON11.CPP
/c /I"C:\\COCOS2D-X-3.10\COCOS\AUDIO\INCLUDE" /I"C:\\COCOS2D-X-3.10\EXTERNAL" /I"C:\\COCOS2D-X-3.10\EXTERNAL\CHIPMUNK\INCLUDE\CHIPMUNK" /I"C:\\COCOS2D-X-3.10\EXTENSIONS" /I..\CLASSES /I.. /I"C:\COCOS2D-X-3.10\COCOS\2D\..\..\COCOS\EDITOR-SUPPORT" /I"C:\COCOS2D-X-3.10\COCOS\2D\..\..\COCOS" /I"C:\COCOS2D-X-3.10\COCOS\2D\..\..\COCOS\PLATFORM" /I"C:\COCOS2D-X-3.10\COCOS\2D\..\..\COCOS\PLATFORM\DESKTOP" /I"C:\COCOS2D-X-3.10\COCOS\2D\..\..\EXTERNAL\GLFW3\INCLUDE\WIN32" /I"C:\COCOS2D-X-3.10\COCOS\2D\..\..\EXTERNAL\WIN32-SPECIFIC\GLES\INCLUDE\OGLES" /I"C:\COCOS2D-X-3.10\COCOS\2D\..\..\EXTERNAL\FREETYPE2\INCLUDE\WIN32\FREETYPE2" /I"C:\COCOS2D-X-3.10\COCOS\2D\..\..\EXTERNAL\FREETYPE2\INCLUDE\WIN32\\" /I"C:\COCOS2D-X-3.10\COCOS\2D\..\..\EXTERNAL" /ZI /nologo /W3 /WX- /sdl- /Od /Oy- /D WIN32 /D _WINDOWS /D _USE_MATH_DEFINES /D GL_GLEXT_PROTOTYPES /D CC_ENABLE_CHIPMUNK_INTEGRATION=1 /D COCOS2D_DEBUG=1 /D _CRT_SECURE_NO_WARNINGS /D _SCL_SECURE_NO_WARNINGS /D _VARIADIC_MAX=10 /D _MBCS /Gm- /EHsc /RTC1 /MD /GS /fp:precise /Zc:wchar_t /Zc:forScope /Zc:inline /Fo"DEBUG.WIN32\\" /Fd"DEBUG.WIN32\VC140.PDB" /Gd /TP /wd4267 /wd4251 /wd4244 /analyze- C:\USERS\TETSUSHI\DOCUMENTS\VISUAL STUDIO 2015\PROJECTS\KAMIHIMEPLAYER\CLASSES\JSON11.CPP
^C:\USERS\TETSUSHI\DOCUMENTS\VISUAL STUDIO 2015\PROJECTS\KAMIHIMEPLAYER\CLASSES\MOVIESPRITE.CPP
/c /I"C:\\COCOS2D-X-3.10\COCOS\AUDIO\INCLUDE" /I"C:\\COCOS2D-X-3.10\EXTERNAL" /I"C:\\COCOS2D-X-3.10\EXTERNAL\CHIPMUNK\INCLUDE\CHIPMUNK" /I"C:\\COCOS2D-X-3.10\EXTENSIONS" /I..\CLASSES /I.. /I"C:\COCOS2D-X-3.10\COCOS\2D\..\..\COCOS\EDITOR-SUPPORT" /I"C:\COCOS2D-X-3.10\COCOS\2D\..\..\COCOS" /I"C:\COCOS2D-X-3.10\COCOS\2D\..\..\COCOS\PLATFORM" /I"C:\COCOS2D-X-3.10\COCOS\2D\..\..\COCOS\PLATFORM\DESKTOP" /I"C:\COCOS2D-X-3.10\COCOS\2D\..\..\EXTERNAL\GLFW3\INCLUDE\WIN32" /I"C:\COCOS2D-X-3.10\COCOS\2D\..\..\EXTERNAL\WIN32-SPECIFIC\GLES\INCLUDE\OGLES" /I"C:\COCOS2D-X-3.10\COCOS\2D\..\..\EXTERNAL\FREETYPE2\INCLUDE\WIN32\FREETYPE2" /I"C:\COCOS2D-X-3.10\COCOS\2D\..\..\EXTERNAL\FREETYPE2\INCLUDE\WIN32\\" /I"C:\COCOS2D-X-3.10\COCOS\2D\..\..\EXTERNAL" /ZI /nologo /W3 /WX- /sdl- /Od /Oy- /D WIN32 /D _WINDOWS /D _USE_MATH_DEFINES /D GL_GLEXT_PROTOTYPES /D CC_ENABLE_CHIPMUNK_INTEGRATION=1 /D COCOS2D_DEBUG=1 /D _CRT_SECURE_NO_WARNINGS /D _SCL_SECURE_NO_WARNINGS /D _VARIADIC_MAX=10 /D _MBCS /Gm- /EHsc /RTC1 /MD /GS /fp:precise /Zc:wchar_t /Zc:forScope /Zc:inline /Fo"DEBUG.WIN32\\" /Fd"DEBUG.WIN32\VC140.PDB" /Gd /TP /wd4267 /wd4251 /wd4244 /analyze- C:\USERS\TETSUSHI\DOCUMENTS\VISUAL STUDIO 2015\PROJECTS\KAMIHIMEPLAYER\CLASSES\MOVIESPRITE.CPP
^C:\USERS\TETSUSHI\DOCUMENTS\VISUAL STUDIO 2015\PROJECTS\KAMIHIMEPLAYER\CLASSES\OPENFILEDIALOG\OPENFILEDIALOG.CPP
/c /I"C:\\COCOS2D-X-3.10\COCOS\AUDIO\INCLUDE" /I"C:\\COCOS2D-X-3.10\EXTERNAL" /I"C:\\COCOS2D-X-3.10\EXTERNAL\CHIPMUNK\INCLUDE\CHIPMUNK" /I"C:\\COCOS2D-X-3.10\EXTENSIONS" /I..\CLASSES /I.. /I"C:\COCOS2D-X-3.10\COCOS\2D\..\..\COCOS\EDITOR-SUPPORT" /I"C:\COCOS2D-X-3.10\COCOS\2D\..\..\COCOS" /I"C:\COCOS2D-X-3.10\COCOS\2D\..\..\COCOS\PLATFORM" /I"C:\COCOS2D-X-3.10\COCOS\2D\..\..\COCOS\PLATFORM\DESKTOP" /I"C:\COCOS2D-X-3.10\COCOS\2D\..\..\EXTERNAL\GLFW3\INCLUDE\WIN32" /I"C:\COCOS2D-X-3.10\COCOS\2D\..\..\EXTERNAL\WIN32-SPECIFIC\GLES\INCLUDE\OGLES" /I"C:\COCOS2D-X-3.10\COCOS\2D\..\..\EXTERNAL\FREETYPE2\INCLUDE\WIN32\FREETYPE2" /I"C:\COCOS2D-X-3.10\COCOS\2D\..\..\EXTERNAL\FREETYPE2\INCLUDE\WIN32\\" /I"C:\COCOS2D-X-3.10\COCOS\2D\..\..\EXTERNAL" /ZI /nologo /W3 /WX- /sdl- /Od /Oy- /D WIN32 /D _WINDOWS /D _USE_MATH_DEFINES /D GL_GLEXT_PROTOTYPES /D CC_ENABLE_CHIPMUNK_INTEGRATION=1 /D COCOS2D_DEBUG=1 /D _CRT_SECURE_NO_WARNINGS /D _SCL_SECURE_NO_WARNINGS /D _VARIADIC_MAX=10 /D _MBCS /Gm- /EHsc /RTC1 /MD /GS /fp:precise /Zc:wchar_t /Zc:forScope /Zc:inline /Fo"DEBUG.WIN32\\" /Fd"DEBUG.WIN32\VC140.PDB" /Gd /TP /wd4267 /wd4251 /wd4244 /analyze- C:\USERS\TETSUSHI\DOCUMENTS\VISUAL STUDIO 2015\PROJECTS\KAMIHIMEPLAYER\CLASSES\OPENFILEDIALOG\OPENFILEDIALOG.CPP
^C:\USERS\TETSUSHI\DOCUMENTS\VISUAL STUDIO 2015\PROJECTS\KAMIHIMEPLAYER\CLASSES\OPENFILEDIALOG\WIN32\OPENFILEDIALOG-WIN32.CPP
/c /I"C:\\COCOS2D-X-3.10\COCOS\AUDIO\INCLUDE" /I"C:\\COCOS2D-X-3.10\EXTERNAL" /I"C:\\COCOS2D-X-3.10\EXTERNAL\CHIPMUNK\INCLUDE\CHIPMUNK" /I"C:\\COCOS2D-X-3.10\EXTENSIONS" /I..\CLASSES /I.. /I"C:\COCOS2D-X-3.10\COCOS\2D\..\..\COCOS\EDITOR-SUPPORT" /I"C:\COCOS2D-X-3.10\COCOS\2D\..\..\COCOS" /I"C:\COCOS2D-X-3.10\COCOS\2D\..\..\COCOS\PLATFORM" /I"C:\COCOS2D-X-3.10\COCOS\2D\..\..\COCOS\PLATFORM\DESKTOP" /I"C:\COCOS2D-X-3.10\COCOS\2D\..\..\EXTERNAL\GLFW3\INCLUDE\WIN32" /I"C:\COCOS2D-X-3.10\COCOS\2D\..\..\EXTERNAL\WIN32-SPECIFIC\GLES\INCLUDE\OGLES" /I"C:\COCOS2D-X-3.10\COCOS\2D\..\..\EXTERNAL\FREETYPE2\INCLUDE\WIN32\FREETYPE2" /I"C:\COCOS2D-X-3.10\COCOS\2D\..\..\EXTERNAL\FREETYPE2\INCLUDE\WIN32\\" /I"C:\COCOS2D-X-3.10\COCOS\2D\..\..\EXTERNAL" /ZI /nologo /W3 /WX- /sdl- /Od /Oy- /D WIN32 /D _WINDOWS /D _USE_MATH_DEFINES /D GL_GLEXT_PROTOTYPES /D CC_ENABLE_CHIPMUNK_INTEGRATION=1 /D COCOS2D_DEBUG=1 /D _CRT_SECURE_NO_WARNINGS /D _SCL_SECURE_NO_WARNINGS /D _VARIADIC_MAX=10 /D _MBCS /Gm- /EHsc /RTC1 /MD /GS /fp:precise /Zc:wchar_t /Zc:forScope /Zc:inline /Fo"DEBUG.WIN32\\" /Fd"DEBUG.WIN32\VC140.PDB" /Gd /TP /wd4267 /wd4251 /wd4244 /analyze- C:\USERS\TETSUSHI\DOCUMENTS\VISUAL STUDIO 2015\PROJECTS\KAMIHIMEPLAYER\CLASSES\OPENFILEDIALOG\WIN32\OPENFILEDIALOG-WIN32.CPP
^C:\USERS\TETSUSHI\DOCUMENTS\VISUAL STUDIO 2015\PROJECTS\KAMIHIMEPLAYER\PROJ.WIN32\MAIN.CPP
/c /I"C:\\COCOS2D-X-3.10\COCOS\AUDIO\INCLUDE" /I"C:\\COCOS2D-X-3.10\EXTERNAL" /I"C:\\COCOS2D-X-3.10\EXTERNAL\CHIPMUNK\INCLUDE\CHIPMUNK" /I"C:\\COCOS2D-X-3.10\EXTENSIONS" /I..\CLASSES /I.. /I"C:\COCOS2D-X-3.10\COCOS\2D\..\..\COCOS\EDITOR-SUPPORT" /I"C:\COCOS2D-X-3.10\COCOS\2D\..\..\COCOS" /I"C:\COCOS2D-X-3.10\COCOS\2D\..\..\COCOS\PLATFORM" /I"C:\COCOS2D-X-3.10\COCOS\2D\..\..\COCOS\PLATFORM\DESKTOP" /I"C:\COCOS2D-X-3.10\COCOS\2D\..\..\EXTERNAL\GLFW3\INCLUDE\WIN32" /I"C:\COCOS2D-X-3.10\COCOS\2D\..\..\EXTERNAL\WIN32-SPECIFIC\GLES\INCLUDE\OGLES" /I"C:\COCOS2D-X-3.10\COCOS\2D\..\..\EXTERNAL\FREETYPE2\INCLUDE\WIN32\FREETYPE2" /I"C:\COCOS2D-X-3.10\COCOS\2D\..\..\EXTERNAL\FREETYPE2\INCLUDE\WIN32\\" /I"C:\COCOS2D-X-3.10\COCOS\2D\..\..\EXTERNAL" /ZI /nologo /W3 /WX- /sdl- /Od /Oy- /D WIN32 /D _WINDOWS /D _USE_MATH_DEFINES /D GL_GLEXT_PROTOTYPES /D CC_ENABLE_CHIPMUNK_INTEGRATION=1 /D COCOS2D_DEBUG=1 /D _CRT_SECURE_NO_WARNINGS /D _SCL_SECURE_NO_WARNINGS /D _VARIADIC_MAX=10 /D _MBCS /Gm- /EHsc /RTC1 /MD /GS /fp:precise /Zc:wchar_t /Zc:forScope /Zc:inline /Fo"DEBUG.WIN32\\" /Fd"DEBUG.WIN32\VC140.PDB" /Gd /TP /wd4267 /wd4251 /wd4244 /analyze- C:\USERS\TETSUSHI\DOCUMENTS\VISUAL STUDIO 2015\PROJECTS\KAMIHIMEPLAYER\PROJ.WIN32\MAIN.CPP
^C:\USERS\TETSUSHI\DOCUMENTS\VISUAL STUDIO 2015\PROJECTS\KAMIHIMEPLAYER\CLASSES\HALEMMANAGER.CPP
/c /I"C:\\COCOS2D-X-3.10\COCOS\AUDIO\INCLUDE" /I"C:\\COCOS2D-X-3.10\EXTERNAL" /I"C:\\COCOS2D-X-3.10\EXTERNAL\CHIPMUNK\INCLUDE\CHIPMUNK" /I"C:\\COCOS2D-X-3.10\EXTENSIONS" /I..\CLASSES /I.. /I"C:\COCOS2D-X-3.10\COCOS\2D\..\..\COCOS\EDITOR-SUPPORT" /I"C:\COCOS2D-X-3.10\COCOS\2D\..\..\COCOS" /I"C:\COCOS2D-X-3.10\COCOS\2D\..\..\COCOS\PLATFORM" /I"C:\COCOS2D-X-3.10\COCOS\2D\..\..\COCOS\PLATFORM\DESKTOP" /I"C:\COCOS2D-X-3.10\COCOS\2D\..\..\EXTERNAL\GLFW3\INCLUDE\WIN32" /I"C:\COCOS2D-X-3.10\COCOS\2D\..\..\EXTERNAL\WIN32-SPECIFIC\GLES\INCLUDE\OGLES" /I"C:\COCOS2D-X-3.10\COCOS\2D\..\..\EXTERNAL\FREETYPE2\INCLUDE\WIN32\FREETYPE2" /I"C:\COCOS2D-X-3.10\COCOS\2D\..\..\EXTERNAL\FREETYPE2\INCLUDE\WIN32\\" /I"C:\COCOS2D-X-3.10\COCOS\2D\..\..\EXTERNAL" /ZI /nologo /W3 /WX- /sdl- /Od /Oy- /D WIN32 /D _WINDOWS /D _USE_MATH_DEFINES /D GL_GLEXT_PROTOTYPES /D CC_ENABLE_CHIPMUNK_INTEGRATION=1 /D COCOS2D_DEBUG=1 /D _CRT_SECURE_NO_WARNINGS /D _SCL_SECURE_NO_WARNINGS /D _VARIADIC_MAX=10 /D _MBCS /Gm- /EHsc /RTC1 /MD /GS /fp:precise /Zc:wchar_t /Zc:forScope /Zc:inline /Fo"DEBUG.WIN32\\" /Fd"DEBUG.WIN32\VC140.PDB" /Gd /TP /wd4267 /wd4251 /wd4244 /analyze- C:\USERS\TETSUSHI\DOCUMENTS\VISUAL STUDIO 2015\PROJECTS\KAMIHIMEPLAYER\CLASSES\HALEMMANAGER.CPP
