^C:\Users\Tetsushi\Documents\Visual Studio 2015\Projects\kamihimeplayer\proj.win32\KamihimePlayer.vcxproj
C:\Users\Tetsushi\Documents\Visual Studio 2015\Projects\kamihimeplayer\proj.win32\Debug.win32\KamihimePlayer.lib
C:\Users\Tetsushi\Documents\Visual Studio 2015\Projects\kamihimeplayer\proj.win32\Debug.win32\KamihimePlayer.exp
^C:\Users\Tetsushi\Documents\Visual Studio 2015\Projects\kamihimeplayer\proj.win32\KamihimePlayer.vcxproj
C:\Users\Tetsushi\Documents\Visual Studio 2015\Projects\kamihimeplayer\proj.win32\Debug.win32\KamihimePlayer.lib
C:\Users\Tetsushi\Documents\Visual Studio 2015\Projects\kamihimeplayer\proj.win32\Debug.win32\KamihimePlayer.exp
^KamihimePlayer
C:\Users\Tetsushi\Documents\Visual Studio 2015\Projects\kamihimeplayer\proj.win32\KamihimePlayer.cab
